{
  "page":1,"total_results":10000,"total_pages":500,
  "results":[
    {
      "original_name":"The Mandalorian",
      "id":82856,"name":"The Mandalorian","popularity":928.855,"vote_count":405,
      "vote_average":7.9,"first_air_date":"2019-11-12",
      "poster_path":"/BbNvKCuEF4SRzFXR16aK6ISFtR.jpg",
      "genre_ids":[10765,10759],"original_language":"en",
      "backdrop_path":"/o7qi2v4uWQ8bZ1tW3KI0Ztn2epk.jpg",
      "overview":"Set after the fall of the Empire and before the emergence of the First Order, we follow the travails of a lone gunfighter in the outer reaches of the galaxy far from the authority of the New Republic.",
      "origin_country":["US"]
    },
    {
      "original_name":"The Witcher",
      "genre_ids":[18,10765],
      "name":"The Witcher",
      "popularity":279.002,"origin_country":["PL","US"],
      "vote_count":206,"first_air_date":"2019-12-20","backdrop_path":"/bKETHQDD3QoIRTMOP4dfKwisL3g.jpg",
      "original_language":"en","id":71912,"vote_average":8.3,
      "overview":"Geralt of Rivia, a mutated monster-hunter for hire, journeys toward his destiny in a turbulent world where people often prove more wicked than beasts.",
      "poster_path":"/zrPpUlehQaBf8YX2NrVrKK8IEpf.jpg"
    },
    {
      "original_name":"Vikings",
      "genre_ids":[18,10759],"name":"Vikings",
      "popularity":580.247,"origin_country":["CA"],
      "vote_count":1838,"first_air_date":"2013-03-03",
      "backdrop_path":"/aq2yEMgRQBPfRkrO0Repo2qhUAT.jpg",
      "original_language":"en","id":44217,"vote_average":7.5,
      "overview":"The adventures of Ragnar Lothbrok, the greatest hero of his age. The series tells the sagas of Ragnar's band of Viking brothers and his family, as he rises to become King of the Viking tribes. As well as being a fearless warrior, Ragnar embodies the Norse traditions of devotion to the gods. Legend has it that he was a direct descendant of Odin, the god of war and warriors.",
      "poster_path":"/ff1zhqvwfS5HvRNcA5UFrH0PA2q.jpg"
    },
    {
      "original_name":"The Simpsons",
      "genre_ids":[16,35],
      "name":"The Simpsons",
      "popularity":367.403,"origin_country":["US"],
      "vote_count":2291,"first_air_date":"1989-12-17",
      "backdrop_path":"/f5uNbUC76oowt5mt5J9QlqrIYQ6.jpg",
      "original_language":"en","id":456,"vote_average":7.2,
      "overview":"Set in Springfield, the average American town, the show focuses on the antics and everyday adventures of the Simpson family; Homer, Marge, Bart, Lisa and Maggie, as well as a virtual cast of thousands. Since the beginning, the series has been a pop culture icon, attracting hundreds of celebrities to guest star. The show has also made name for itself in its fearless satirical take on politics, media and American life in general.",
      "poster_path":"/yTZQkSsxUFJZJe67IenRM0AEklc.jpg"
    },
    {
      "original_name":"The Flash","genre_ids":[18,10765],
      "name":"The Flash","popularity":246.895,
      "origin_country":["US"],"vote_count":3099,
      "first_air_date":"2014-10-07","backdrop_path":"/6ZdQTBy20HzWudZthAV7NkZWfIb.jpg",
      "original_language":"en","id":60735,"vote_average":6.7,
      "overview":"After a particle accelerator causes a freak storm, CSI Investigator Barry Allen is struck by lightning and falls into a coma. Months later he awakens with the power of super speed, granting him the ability to move through Central City like an unseen guardian angel. Though initially excited by his newfound powers, Barry is shocked to discover he is not the only \"meta-human\" who was created in the wake of the accelerator explosion -- and not everyone is using their new powers for good. Barry partners with S.T.A.R. Labs and dedicates his life to protect the innocent. For now, only a few close friends and associates know that Barry is literally the fastest man alive, but it won't be long before the world learns what Barry Allen has become...The Flash.",
      "poster_path":"/wHa6KOJAoNTFLFtp7wguUJKSnju.jpg"
    },
    {
      "original_name":"Breaking Bad",
      "genre_ids":[18],"name":"Breaking Bad",
      "popularity":259.9,"origin_country":["US"],
      "vote_count":3717,"first_air_date":"2008-01-20",
      "backdrop_path":"/hbgPoI0GBrXJfGjYNV2fMQU0xou.jpg",
      "original_language":"en","id":1396,"vote_average":8.5,
      "overview":"When Walter White, a New Mexico chemistry teacher, is diagnosed with Stage III cancer and given a prognosis of only two years left to live. He becomes filled with a sense of fearlessness and an unrelenting desire to secure his family's financial future at any cost as he enters the dangerous world of drugs and crime.",
      "poster_path":"/1yeVJox3rjo2jBKrrihIMj7uoS9.jpg"
    },
    {
      "original_name":"Rick and Morty",
      "genre_ids":[16,35,10765],
      "name":"Rick and Morty","popularity":282.454,
      "origin_country":["US"],"vote_count":1611,
      "first_air_date":"2013-12-02","backdrop_path":"/mzzHr6g1yvZ05Mc7hNj3tUdy2bM.jpg",
      "original_language":"en","id":60625,"vote_average":8.6,
      "overview":"Rick is a mentally-unbalanced but scientifically-gifted old man who has recently reconnected with his family. He spends most of his time involving his young grandson Morty in dangerous, outlandish adventures throughout space and alternate universes. Compounded with Morty's already unstable family life, these events cause Morty much distress at home and school.",
      "poster_path":"/qJdfO3ahgAMf2rcmhoqngjBBZW1.jpg"
    },
    {
      "original_name":"Arrow","genre_ids":[80,18,9648,10759],
      "name":"Arrow","popularity":437.286,"origin_country":["US"],
      "vote_count":2944,"first_air_date":"2012-10-10","backdrop_path":"/dXTyVDTIgeByvUOUEiHjbi8xX9A.jpg",
      "original_language":"en","id":1412,"vote_average":5.8,
      "overview":"Spoiled billionaire playboy Oliver Queen is missing and presumed dead when his yacht is lost at sea. He returns five years later a changed man, determined to clean up the city as a hooded vigilante armed with a bow.",
      "poster_path":"/gKG5QGz5Ngf8fgWpBsWtlg5L2SF.jpg"
    },
    {
      "original_name":"Doctor Who","genre_ids":[18,10759,10765],
      "name":"Doctor Who","popularity":367.3,
      "origin_country":["GB"],
      "vote_count":1532,
      "first_air_date":"2005-03-26",
      "backdrop_path":"/mQ9yeCuofNatSyErUKAPD1uOq8Q.jpg",
      "original_language":"en","id":57243,"vote_average":7,
      "overview":"The Doctor is a Time Lord: a 900 year old alien with 2 hearts, part of a gifted civilization who mastered time travel. The Doctor saves planets for a living—more of a hobby actually, and the Doctor's very, very good at it.",
      "poster_path":"/cDDb7WA2i7cENhkEEjXEDrXGyNL.jpg"
    },
    {
      "original_name":"Smallville","genre_ids":[18,9648,10759,10765],
      "name":"Smallville",
      "popularity":220.721,
      "origin_country":["US"],
      "vote_count":530,"first_air_date":"2001-10-16",
      "backdrop_path":"/boKDHb1cpPljTKrfCYeZSdTf2LI.jpg",
      "original_language":"en","id":4604,"vote_average":7.2,
      "overview":"The origins of the world’s greatest hero–from Krypton refugee Kal-el’s arrival on Earth through his tumultuous teen years to Clark Kent’s final steps toward embracing his destiny as the Man of Steel.",
      "poster_path":"/dc9a9n4g9Ibs485t5eBtyNG0mcr.jpg"
    },
    {
      "original_name":"プランダラ",
      "genre_ids":[16,10759,10765],
      "name":"Plunderer","popularity":111.465,
      "origin_country":["JP"],"vote_count":0,"first_air_date":"2020-01-08",
      "backdrop_path":"/7BP3aJUCk8Iv20YFAqHcbXpTMwR.jpg",
      "original_language":"ja","id":93149,"vote_average":0,
      "overview":"In a post-apocalyptic world dominated by the so-called \"Numbers,\" each human will have their identity branded with their own \"Count,\" which could define any number related to their life. May it be one's walked distance or amount of compliments given to them by others, this Count could lead them to the abyss when it has dropped to zero.\n\nIn the year 305 of the Alcian calendar, Hina has inherited a mission from her Mother, whose Count has depreciated to zero, to search for the Legendary Red Baron. In her adventure, she meets a half-masked swordsman named Licht who tries to hide his identity, as he is known as a degenerate for having an incredibly low Count.",
      "poster_path":"/cp1iGqNNy5JRhWbpP3qoANgz1gV.jpg"
    },
    {
      "original_name":"ポケモン","genre_ids":[16,10759,10765],
      "name":"Pokémon","popularity":139.651,
      "origin_country":["JP"],"vote_count":268,
      "first_air_date":"1997-04-01",
      "backdrop_path":"/qyMhVZKYy4ionYsbjDZNSF75fPu.jpg",
      "original_language":"ja","id":60572,"vote_average":6.6,
      "overview":"Join Ash Ketchum, accompanied by his partner Pikachu, as he travels through many regions, meets new friends and faces new challenges on his quest to become a Pokémon Master.",
      "poster_path":"/2pcTUs20ysCdA6DZclaPmGXD6ph.jpg"
    },
    {
      "original_name":"Shameless","genre_ids":[35,18],
      "name":"Shameless","popularity":137.706,"origin_country":["US"],
      "vote_count":944,"first_air_date":"2011-01-09","backdrop_path":"/1ccgQ6IJyEc8UHPtGeFFeRqMVnc.jpg",
      "original_language":"en","id":34307,"vote_average":7.9,
      "overview":"Chicagoan Frank Gallagher is the proud single dad of six smart, industrious, independent kids, who without him would be... perhaps better off. When Frank's not at the bar spending what little money they have, he's passed out on the floor. But the kids have found ways to grow up in spite of him. They may not be like any family you know, but they make no apologies for being exactly who they are.",
      "poster_path":"/m2gf7SYOq9z30Q1dJFMF51DfrmF.jpg"
    },
    {
      "original_name":"Tatort","genre_ids":[80,18],
      "name":"Scene of the Crime","popularity":189.767,"origin_country":["AT","DE","CH"],
      "vote_count":53,"first_air_date":"1970-11-29","backdrop_path":"/aBSeDyaN5s6rW0RC0VZX5XDNxu4.jpg",
      "original_language":"de","id":3034,
      "vote_average":5.7,
      "overview":"Tatort is a long-running German\/Austrian\/Swiss, crime television series set in various parts of these countries. The show is broadcast on the channels of ARD in Germany, ORF 2 in Austria and SF1 in Switzerland. The first episode was broadcast on November 29, 1970. The opening sequence for the series has remained the same throughout the decades, which remains highly unusual for any such long-running TV series up to date.\n\nEach of the regional TV channels which together form ARD, plus ORF and SF, produces its own episodes, starring its own police inspector, some of which, like the discontinued Schimanski, have become cultural icons.\n\nThe show appears on DasErste and ORF 2 on Sundays at 8:15 p.m. and currently about 30 episodes are made per year. As of March 2013, 865 episodes in total have been produced.\n\nTatort is currently being broadcast in the United States on the MHz Worldview channel under the name Scene of the Crime.",
      "poster_path":"/aFWiM04UmCEnd53GNL1uFy2Qfll.jpg"
    },
    {
      "original_name":"Supernatural","genre_ids":[18,9648,10765],
      "name":"Supernatural","popularity":487.12,"origin_country":["US"],"vote_count":2115,
      "first_air_date":"2005-09-13","backdrop_path":"/o9OKe3M06QMLOzTl3l6GStYtnE9.jpg",
      "original_language":"en","id":1622,"vote_average":7.4,"overview":"When they were boys, Sam and Dean Winchester lost their mother to a mysterious and demonic supernatural force. Subsequently, their father raised them to be soldiers. He taught them about the paranormal evil that lives in the dark corners and on the back roads of America ... and he taught them how to kill it. Now, the Winchester brothers crisscross the country in their '67 Chevy Impala, battling every kind of supernatural threat they encounter along the way. ",
      "poster_path":"/KoYWXbnYuS3b0GyQPkbuexlVK9.jpg"
    },
    {
      "original_name":"Law & Order: Special Victims Unit","genre_ids":[80,18],
      "name":"Law & Order: Special Victims Unit","popularity":439.137,"origin_country":["US"],
      "vote_count":754,"first_air_date":"1999-09-20","backdrop_path":"/kOvt2BOOwSAQCT8yo3pM3X2GXjh.jpg",
      "original_language":"en","id":2734,"vote_average":6.5,
      "overview":"In the criminal justice system, sexually-based offenses are considered especially heinous. In New York City, the dedicated detectives who investigate these vicious felonies are members of an elite squad known as the Special Victims Unit. These are their stories.",
      "poster_path":"/6t6r1VGQTTQecN4V0sZeqsmdU9g.jpg"
    },
    {
      "original_name":"His Dark Materials",
      "genre_ids":[18,10765],"name":"His Dark Materials",
      "popularity":139.588,"origin_country":["GB"],"vote_count":147,
      "first_air_date":"2019-11-03","backdrop_path":"/9yKCJTOh9m3Lol2RY3kw99QPH6x.jpg",
      "original_language":"en","id":68507,"vote_average":7.6,
      "overview":"Lyra is an orphan who lives in a parallel universe in which science, theology and magic are entwined. Lyra's search for a kidnapped friend uncovers a sinister plot involving stolen children, and turns into a quest to understand a mysterious phenomenon called Dust. She is later joined on her journey by Will, a boy who possesses a knife that can cut windows between worlds. As Lyra learns the truth about her parents and her prophesied destiny, the two young people are caught up in a war against celestial powers that ranges across many worlds.",
      "poster_path":"/xOjRNnQw5hqR1EULJ2iHkGwJVA4.jpg"
    },
    {
      "original_name":"Lost in Space","genre_ids":[18,10759,10765],
      "name":"Lost in Space","popularity":127.938,"origin_country":["US"],
      "vote_count":290,"first_air_date":"2018-04-13","backdrop_path":"/dCm03Ro8FRKcJIy3P27gPT4uEXD.jpg",
      "original_language":"en","id":75758,"vote_average":7.1,
      "overview":"After crash-landing on an alien planet, the Robinson family fights against all odds to survive and escape. But they're surrounded by hidden dangers.",
      "poster_path":"/83mK4CnvRPFSqcyO3s3lq6aDy1x.jpg"
    },
    {
      "original_name":"The X-Files","id":4087,
      "name":"The X-Files","popularity":168.927,
      "vote_count":1055,"vote_average":8.1,"first_air_date":"1993-09-10",
      "poster_path":"/5BD0kiTGnDxONqdrsswTewnk6WH.jpg",
      "genre_ids":[10765,9648,18],"original_language":"en","backdrop_path":"/5Ycqqaf27bNWyxm7XRc9gRVniYe.jpg",
      "overview":"The exploits of FBI Special Agents Fox Mulder and Dana Scully who investigate X-Files: marginalized, unsolved cases involving paranormal phenomena. Mulder believes in the existence of aliens and the paranormal while Scully, a skeptic, is assigned to make scientific analyses of Mulder's discoveries that debunk Mulder's work and thus return him to mainstream cases.",
      "origin_country":["US"]
    },
    {
      "original_name":"YOU","genre_ids":[80,18],
      "name":"YOU","popularity":115.78,"origin_country":["US"],
      "vote_count":144,"first_air_date":"2018-09-09","backdrop_path":"/yA2WBBIcKSsmOyYzlbE9y4r9wua.jpg",
      "original_language":"en","id":78191,"vote_average":7.7,
      "overview":"When a brilliant bookstore manager crosses paths with an aspiring writer, he uses the internet and social media to gather the most intimate of details and get close to her. A charming and awkward crush quickly becomes obsession as he quietly and strategically removes every obstacle - and person - in his way.",
      "poster_path":"\/9qZUrhcFVI9MNznVJxdfcrmifof.jpg"
    }
  ]
}